Division,WeightClassKg,Place,Name,Team,BodyweightKg,Best3SquatKg,Best3BenchKg,Best3DeadliftKg,TotalKg,Equipment,Event,Sex,BirthDate
Girls,44.23,1,Angelica Estrada,San Angelo Lake View,42.91,86.18,56.7,86.18,229.06,Unlimited,SBD,F,
Girls,44.23,2,Grace Doyle,Llano,36.92,70.31,31.75,92.99,195.04,Unlimited,SBD,F,
Girls,47.85,1,Halle Maxwell,Burnet,47.36,83.91,49.9,97.52,231.33,Unlimited,SBD,F,
Girls,47.85,2,Kalista Lara,Goldthwaite,47.54,88.45,52.16,61.23,201.85,Unlimited,SBD,F,
Girls,47.85,3,Jasmine Rangel,San Angelo Lake View,46.99,65.77,34.02,79.38,179.17,Unlimited,SBD,F,
Girls,47.85,4,Bella Gurrola,Fredericksburg,46.9,54.43,29.48,63.5,147.42,Unlimited,SBD,F,
Girls,51.94,1,Olivia Hoot,Llano,51.44,86.18,45.36,88.45,219.99,Unlimited,SBD,F,
Girls,51.94,2,Esmee Flores,San Angelo Lake View,51.8,79.38,49.9,79.38,208.65,Unlimited,SBD,F,
Girls,51.94,3,Dionna Schulz,Lampasas,51.8,70.31,40.82,97.52,208.65,Unlimited,SBD,F,
Girls,51.94,4,Ava Speichert,Lampasas,51.26,68.04,38.56,90.72,197.31,Unlimited,SBD,F,
Girls,56.02,1,Gwyn Burnett,Llano,54.16,131.54,61.23,136.08,328.85,Unlimited,SBD,F,
Girls,56.02,2,Josie Teague,Burnet,54.34,122.47,63.5,102.06,288.03,Unlimited,SBD,F,
Girls,56.02,3,Hailey LeJeune,Llano,55.97,99.79,63.5,97.52,260.82,Unlimited,SBD,F,
Girls,56.02,4,Skyler Michaud,Lampasas,54.34,97.52,58.97,97.52,254.01,Unlimited,SBD,F,
Girls,56.02,5,Carson Hoot,Llano,54.16,102.06,49.9,95.25,247.21,Unlimited,SBD,F,
Girls,56.02,6,Sophia Storm,Lampasas,55.25,79.38,38.56,102.06,219.99,Unlimited,SBD,F,
Girls,56.02,7,Ruby Wiseman,Lampasas,54.25,70.31,45.36,97.52,213.19,Unlimited,SBD,F,
Girls,56.02,8,Sydney Killebrew,Burnet,55.34,68.04,40.82,90.72,199.58,Unlimited,SBD,F,
Girls,56.02,9,Makenzie Long,Marble Falls,53.16,68.04,43.09,77.11,188.24,Unlimited,SBD,F,
Girls,56.02,10,Analyn Jackson,Fredericksburg,55.97,63.5,36.29,74.84,174.63,Unlimited,SBD,F,
Girls,56.02,DQ,Madison Morrison,Llano,52.53,,,,,Unlimited,SBD,F,
Girls,56.02,DQ,Kendall Martinez,Blanco,55.88,92.99,40.82,,,Unlimited,SBD,F,
Girls,56.02,DQ,Kylie Ridner,Blanco,55.25,122.47,,,,Unlimited,SBD,F,
Girls,60.1,1,Brooke Humphries,Llano,58.24,106.59,61.23,115.67,283.5,Unlimited,SBD,F,
Girls,60.1,2,Violeta Zagada,Llano,58.69,99.79,56.7,124.74,281.23,Unlimited,SBD,F,
Girls,60.1,3,Charlie Freese,Lampasas,59.6,95.25,65.77,115.67,276.69,Unlimited,SBD,F,
Girls,60.1,4,Rubi Monroy,Llano,59.33,102.06,65.77,102.06,269.89,Unlimited,SBD,F,
Girls,60.1,5,Ava Barnes,San Angelo Lake View,59.51,104.33,63.5,99.79,267.62,Unlimited,SBD,F,
Girls,60.1,6,Torynce Soli,Blanco,59.24,90.72,45.36,90.72,226.8,Unlimited,SBD,F,
Girls,60.1,7,Hailey Chalico,Blanco,57.42,77.11,54.43,92.99,224.53,Unlimited,SBD,F,
Girls,60.1,DQ,Abigail Gonzalez,San Saba,58.88,72.57,38.56,,,Unlimited,SBD,F,
Girls,60.1,DQ,Cheyenne Blair,Marble Falls,59.6,95.25,,,,Unlimited,SBD,F,
Girls,67.36,1,Cambree Hoyt,Llano,67.22,113.4,61.23,104.33,278.96,Unlimited,SBD,F,
Girls,67.36,2,Presanies Thomas,San Saba,63.96,104.33,52.16,115.67,272.16,Unlimited,SBD,F,
Girls,67.36,3,Gracie Farmer,Burnet,63.87,90.72,54.43,111.13,256.28,Unlimited,SBD,F,
Girls,67.36,4,Jocelyn Torres,Fredericksburg,63.96,86.18,52.16,115.67,254.01,Unlimited,SBD,F,
Girls,67.36,5,Amberlyn Glasscock,Burnet,61.05,95.25,52.16,92.99,240.4,Unlimited,SBD,F,
Girls,67.36,6,Ashlee Flores,Lampasas,64.14,97.52,47.63,90.72,235.87,Unlimited,SBD,F,
Girls,67.36,7,Heaven Alambar,San Angelo Lake View,62.69,83.91,49.9,97.52,231.33,Unlimited,SBD,F,
Girls,67.36,8,Alicia Culbertson,San Saba,62.14,79.38,34.02,113.4,226.8,Unlimited,SBD,F,
Girls,67.36,9,Harper Cole,Comfort,64.05,90.72,45.36,88.45,224.53,Unlimited,SBD,F,
Girls,67.36,10,Perla Aguilar,San Saba,67.31,83.91,38.56,92.99,215.46,Unlimited,SBD,F,
Girls,67.36,11,Genesis Ortega Delgado,Fredericksburg,62.14,58.97,45.36,90.72,195.04,Unlimited,SBD,F,
Girls,67.36,DQ,Rachel Fry,Llano,61.87,120.2,,,,Unlimited,SBD,F,
Girls,67.36,DQ,Josslyn Romine,Lampasas,62.6,,,,,Unlimited,SBD,F,
Girls,75.07,1,Lizbeth Depaz,Llano,70.49,158.76,74.84,145.15,378.75,Unlimited,SBD,F,
Girls,75.07,2,Jayme Duroy,Llano,71.3,106.59,63.5,131.54,301.64,Unlimited,SBD,F,
Girls,75.07,3,Rebecca Vaughn,Llano,71.4,113.4,68.04,111.13,292.57,Unlimited,SBD,F,
Girls,75.07,4,Carleigh Imrie,Burnet,71.58,97.52,49.9,99.79,247.21,Unlimited,SBD,F,
Girls,75.07,5,Jersey Menchaca,Burnet,68.49,97.52,47.63,92.99,238.14,Unlimited,SBD,F,
Girls,75.07,6,Noelia Perdomo,Llano,68.86,90.72,45.36,90.72,226.8,Unlimited,SBD,F,
Girls,75.07,7,Sarah Holland,Comfort,73.75,70.31,43.09,99.79,213.19,Unlimited,SBD,F,
Girls,75.07,DQ,Amaya Cabrera,Goldthwaite,71.94,,,,,Unlimited,SBD,F,
Girls,82.33,1,Melia Briones,San Angelo Lake View,77.56,149.69,86.18,147.42,383.29,Unlimited,SBD,F,
Girls,82.33,2,Austyn Graham,San Saba,82.01,145.15,90.72,145.15,381.02,Unlimited,SBD,F,
Girls,82.33,3,Carolina Cervantes,San Saba,80.92,158.76,65.77,149.69,374.21,Unlimited,SBD,F,
Girls,82.33,4,Arianna Bermudez,Lampasas,80.38,154.22,72.57,145.15,371.95,Unlimited,SBD,F,
Girls,82.33,5,Alexis Dalton,Marble Falls,77.47,136.08,58.97,136.08,331.12,Unlimited,SBD,F,
Girls,82.33,6,Kimberly Watson,Burnet,77.56,136.08,68.04,127.01,331.12,Unlimited,SBD,F,
Girls,82.33,7,Wendaly Martinez,Comfort,77.66,131.54,58.97,129.27,319.78,Unlimited,SBD,F,
Girls,82.33,8,Abigail Boucher,Marble Falls,75.3,127.01,56.7,129.27,312.98,Unlimited,SBD,F,
Girls,82.33,9,Angelina Paez,San Angelo Lake View,80.29,108.86,81.65,117.93,308.44,Unlimited,SBD,F,
Girls,82.33,10,Bethany Fry,Marble Falls,75.75,113.4,56.7,129.27,299.37,Unlimited,SBD,F,
Girls,82.33,11,Leann Millegan,Llano,78.93,117.93,61.23,117.93,297.1,Unlimited,SBD,F,
Girls,82.33,12,Tyler Wells,Lampasas,76.38,113.4,47.63,111.13,272.16,Unlimited,SBD,F,
Girls,82.33,13,Cynthia Leos,Comfort,78.02,108.86,49.9,102.06,260.82,Unlimited,SBD,F,
Girls,82.33,14,Isabell Medina,Marble Falls,75.3,99.79,56.7,97.52,254.01,Unlimited,SBD,F,
Girls,82.33,DQ,Marley Champeau,Lampasas,81.47,102.06,43.09,,,Unlimited,SBD,F,
Girls,90.04,1,Valeria Macias,San Saba,82.74,133.81,58.97,136.08,328.85,Unlimited,SBD,F,
Girls,90.04,2,Vanessa Barrera,Blanco,85.09,117.93,65.77,115.67,299.37,Unlimited,SBD,F,
Girls,90.04,3,Hadley Howard,Lampasas,87,122.47,61.23,102.06,285.76,Unlimited,SBD,F,
Girls,90.04,4,Ada Watson,Fredericksburg,89.63,95.25,52.16,113.4,260.82,Unlimited,SBD,F,
Girls,90.04,5,Makenzy Beucler,Fredericksburg,86.27,61.23,31.75,81.65,174.63,Unlimited,SBD,F,
Girls,100.02,1,Alex Hartman,Blanco,94.53,136.08,90.72,133.81,360.61,Unlimited,SBD,F,
Girls,100.02,2,Sophia Cuevas,San Saba,98.7,122.47,74.84,122.47,319.78,Unlimited,SBD,F,
Girls,100.02,3,Mary Jane Cantu,San Saba,95.07,120.2,65.77,106.59,292.57,Unlimited,SBD,F,
Girls,100.02,4,Amaya Colquitt,San Angelo Lake View,94.62,117.93,58.97,106.59,283.5,Unlimited,SBD,F,
Girls,100.02,5,Joanna Cerda,San Angelo Lake View,94.17,106.59,63.5,111.13,281.23,Unlimited,SBD,F,
Girls,100.02,6,Mia Valenzuela,Comfort,96.07,102.06,56.7,115.67,274.42,Unlimited,SBD,F,
Girls,100.02,7,Keanna Lumbrera,San Angelo Lake View,91.35,104.33,56.7,106.59,267.62,Unlimited,SBD,F,
Girls,100.02,8,Aiyana Vasquez,Fredericksburg,93.08,92.99,43.09,102.06,238.14,Unlimited,SBD,F,
Girls,100.02,9,Alexis Rojas,Comfort,94.89,102.06,38.56,97.52,238.14,Unlimited,SBD,F,
Girls,100.02,DQ,Camrie Henderson,Llano,99.06,124.74,,,,Unlimited,SBD,F,
Girls,110,1,Adrian Bankston,San Angelo Lake View,101.15,111.13,88.45,97.52,297.1,Unlimited,SBD,F,
Girls,110,2,Michelle Villa,Comfort,105.6,117.93,49.9,99.79,267.62,Unlimited,SBD,F,
Girls,110+,1,Janiya Jefferson,San Angelo Lake View,139.53,163.29,90.72,170.1,424.11,Unlimited,SBD,F,
