Division,WeightClassKg,Place,Name,Team,BodyweightKg,Best3SquatKg,Best3BenchKg,Best3DeadliftKg,TotalKg,Equipment,Event,Sex,BirthDate
Boys,51.71,1,Xavier Marroquin,Strawn,47.45,81.65,54.43,106.59,242.67,Single-ply,SBD,M,
Boys,51.71,2,Joel Jones,Perrin-Whitt,49.8,90.72,45.36,90.72,226.8,Single-ply,SBD,M,
Boys,55.79,1,Leo Martinez,Ranger,52.98,106.59,72.57,136.08,315.25,Single-ply,SBD,M,
Boys,59.87,1,Adam Spharler,Dublin,59.15,136.08,83.91,158.76,378.75,Single-ply,SBD,M,
Boys,59.87,2,Logan Turner,Perrin-Whitt,59.87,131.54,97.52,142.88,371.95,Single-ply,SBD,M,
Boys,59.87,3,Axel Rangel,Comanche,57.79,140.61,79.38,147.42,367.41,Single-ply,SBD,M,
Boys,59.87,4,Lewis Northridge,Comanche,59.69,133.81,83.91,142.88,360.61,Single-ply,SBD,M,
Boys,59.87,5,Aj Ramos,Brady,59.6,127.01,61.23,147.42,335.66,Single-ply,SBD,M,
Boys,59.87,DQ,Emmanuel McLaughlin,Blanket,59.06,90.72,,113.4,,Single-ply,SBD,M,
Boys,67.13,1,Dayden Hunter,Coleman,66.86,195.04,145.15,183.7,523.9,Single-ply,SBD,M,
Boys,67.13,2,Elijah Gonzales,Dublin,66.32,188.24,102.06,183.7,474,Single-ply,SBD,M,
Boys,67.13,3,Trenton Sizemore,Strawn,67.13,172.37,108.86,185.97,467.2,Single-ply,SBD,M,
Boys,67.13,4,Cosme Gonzalez,Comanche,66.32,181.44,102.06,174.63,458.13,Single-ply,SBD,M,
Boys,67.13,5,Dakota Higgins,Rising Star,67.13,154.22,86.18,167.83,408.23,Single-ply,SBD,M,
Boys,67.13,6,Brody Strew,Sidney,66.68,111.13,77.11,170.1,358.34,Single-ply,SBD,M,
Boys,74.84,1,Denver Hunter,Coleman,71.21,188.24,129.27,185.97,503.49,Single-ply,SBD,M,
Boys,74.84,DQ,Ian Cortez,Bangs,73.12,,142.88,233.6,,Single-ply,SBD,M,
Boys,82.1,1,Cade Bauman,Comanche,76.57,213.19,138.35,204.12,555.65,Single-ply,SBD,M,
Boys,82.1,2,Montgomery McKinnon,Ballinger,81.1,192.78,136.08,188.24,517.1,Single-ply,SBD,M,
Boys,82.1,3,Jimmy Diaz,Coleman,80.47,172.37,106.59,174.63,453.59,Single-ply,SBD,M,
Boys,82.1,4,Wyatt Puryear,Coleman,79.56,127.01,74.84,174.63,376.48,Single-ply,SBD,M,
Boys,89.81,1,Justice Baker #1,Strawn,83.82,233.6,131.54,190.51,555.65,Single-ply,SBD,M,
Boys,89.81,2,Jd Ibarra,Brady,88.99,201.85,138.35,215.46,555.65,Single-ply,SBD,M,
Boys,89.81,3,Jett Millsop,Strawn,87.82,226.8,124.74,192.78,544.31,Single-ply,SBD,M,
Boys,89.81,4,Johnathan Wheeler,Ballinger,83.28,201.85,108.86,199.58,510.29,Single-ply,SBD,M,
Boys,89.81,5,Aiden Knight,Ballinger,83.91,176.9,127.01,195.04,498.95,Single-ply,SBD,M,
Boys,89.81,6,Justin Patton,Strawn,85.18,158.76,83.91,165.56,408.23,Single-ply,SBD,M,
Boys,89.81,7,Jordan Jaramillo,Ranger,87.63,129.27,104.33,136.08,369.68,Single-ply,SBD,M,
Boys,89.81,8,Joshua Smith,Blanket,89.36,113.4,81.65,,195.04,Single-ply,SB,M,
Boys,99.79,1,Lorenzo Garcia,Strawn,96.62,260.82,136.08,213.19,610.08,Single-ply,SBD,M,
Boys,99.79,2,Oscar Villarreal,Ranger,99.43,161.03,92.99,190.51,444.52,Single-ply,SBD,M,
Boys,99.79,3,Cobly Morton,Strawn,96.98,181.44,104.33,113.4,399.16,Single-ply,SBD,M,
Boys,99.79,4,Owen Cardiel,Perrin-Whitt,96.62,,97.52,138.35,235.87,Single-ply,BD,M,
Boys,99.79,NS,Jose Estrada,Strawn,,,,,,Single-ply,SBD,M,
Boys,109.77,1,Zane Gillaspia,Brady,103.24,204.12,127.01,219.99,551.11,Single-ply,SBD,M,
Boys,109.77,2,Landon Farmer,Ranger,108.32,154.22,102.06,136.08,392.36,Single-ply,SBD,M,
Boys,109.77,3,Adian Gill,Perrin-Whitt,105.78,127.01,65.77,147.42,340.19,Single-ply,SBD,M,
Boys,124.74,1,Ethan Morin,Comanche,120.47,235.87,163.29,247.21,646.37,Single-ply,SBD,M,
Boys,124.74,2,Salvador Anaya,Comanche,110.4,213.19,115.67,210.92,539.77,Single-ply,SBD,M,
Boys,124.74,3,Adam Crawford,Perrin-Whitt,123.2,176.9,120.2,179.17,476.27,Single-ply,SBD,M,
Boys,124.74,4,Keaton Tunnell,Strawn,110.68,181.44,117.93,170.1,469.47,Single-ply,SBD,M,
Boys,124.74,5,Blake Kennedy,Coleman,111.77,154.22,117.93,172.37,444.52,Single-ply,SBD,M,
Boys,139.71,1,Jeryd Fain,Coleman,128.09,281.23,158.76,226.8,666.78,Single-ply,SBD,M,
Boys,139.71,2,Richard Escamilla,Ranger,134.54,,,145.15,145.15,Single-ply,D,M,
Boys,139.71+,1,Eddy Hernandez,Dublin,141.79,181.44,120.2,192.78,494.42,Single-ply,SBD,M,
Boys,139.71+,2,Piercyn Brooks,Perrin-Whitt,143.15,170.1,106.59,156.49,433.18,Single-ply,SBD,M,
