Division,WeightClassKg,Place,Name,Team,BodyweightKg,Best3SquatKg,Best3BenchKg,Best3DeadliftKg,TotalKg,Equipment,Event,Sex,BirthDate
Boys,51.71,1,Andres Galan,Canton,48.99,142.88,79.38,145.15,367.41,Unlimited,SBD,M,
Boys,51.71,2,Chance Walker,Ferris,48.35,86.18,52.16,86.18,224.53,Unlimited,SBD,M,
Boys,51.71,DQ,Josue Galan,Canton,50.98,129.27,,142.88,,Unlimited,SBD,M,
Boys,59.87,1,Emanuel Mathews,Sunnyvale,58.06,142.88,72.57,129.27,344.73,Unlimited,SBD,M,
Boys,59.87,2,Jaxon Durham,Canton,59.15,117.93,61.23,149.69,328.85,Unlimited,SBD,M,
Boys,67.13,1,Noah Zarte,Canton,63.05,165.56,92.99,163.29,421.84,Unlimited,SBD,M,
Boys,67.13,2,Cristian Martinez,Corsicana,64.68,151.95,102.06,165.56,419.57,Unlimited,SBD,M,
Boys,67.13,3,Ashton Jimenez,Mesquite Poteet,66.41,142.88,92.99,172.37,408.23,Unlimited,SBD,M,
Boys,67.13,4,Noel Mares,Mesquite Horn,66.68,163.29,79.38,161.03,403.7,Unlimited,SBD,M,
Boys,67.13,5,Josiah Samuel,Carrollton Ranchview,67.13,131.54,95.25,172.37,399.16,Unlimited,SBD,M,
Boys,67.13,6,Jeremy Abraham,Sunnyvale,67.13,161.03,83.91,142.88,387.82,Unlimited,SBD,M,
Boys,67.13,7,Jack Miller,Emory Rains,66.22,102.06,70.31,127.01,299.37,Unlimited,SBD,M,
Boys,67.13,8,Tyson Crumley,Sunnyvale,62.14,9.07,81.65,151.95,242.67,Unlimited,SBD,M,
Boys,67.13,DQ,John Jiminez,Mesquite Horn,63.5,,,,,Unlimited,SBD,M,
Boys,67.13,DQ,Andrew Garcia,Mesquite Horn,61.23,,,,,Unlimited,SBD,M,
Boys,74.84,1,Eli Fitzhugh,Corsicana,73.48,183.7,147.42,192.78,523.9,Unlimited,SBD,M,
Boys,74.84,2,James Darwin,Sunnyvale,73.48,185.97,106.59,188.24,480.81,Unlimited,SBD,M,
Boys,74.84,3,Jaden Lester,Carrollton Ranchview,71.12,158.76,113.4,206.38,478.54,Unlimited,SBD,M,
Boys,74.84,4,Jason Samuel,Carrollton Ranchview,68.76,163.29,102.06,183.7,449.06,Unlimited,SBD,M,
Boys,74.84,5,Chance Jowers,Canton,72.94,176.9,88.45,181.44,446.79,Unlimited,SBD,M,
Boys,74.84,6,Callan O'Neil,Canton,74.75,147.42,113.4,158.76,419.57,Unlimited,SBD,M,
Boys,74.84,7,Chris Cortez,Mesquite Poteet,72.3,142.88,83.91,151.95,378.75,Unlimited,SBD,M,
Boys,74.84,8,Chris Cantu,Ferris,71.4,122.47,79.38,147.42,349.27,Unlimited,SBD,M,
Boys,74.84,9,Terrance Harris,Carrollton Ranchview,72.39,131.54,70.31,142.88,344.73,Unlimited,SBD,M,
Boys,74.84,10,Colby Witt,Emory Rains,69.49,111.13,81.65,136.08,328.85,Unlimited,SBD,M,
Boys,74.84,11,SMith Cooper,Canton,68.4,113.4,81.65,122.47,317.51,Unlimited,SBD,M,
Boys,82.1,1,Sergio Ramirez,Corsicana,77.84,231.33,136.08,204.12,571.53,Unlimited,SBD,M,
Boys,82.1,2,Jeremiel Taylor,Corsicana,79.65,174.63,122.47,206.38,503.49,Unlimited,SBD,M,
Boys,82.1,3,Zavius Alexander,Mesquite Poteet,81.1,170.1,124.74,176.9,471.74,Unlimited,SBD,M,
Boys,82.1,4,Shemar Williams,Everman,77.75,174.63,111.13,172.37,458.13,Unlimited,SBD,M,
Boys,82.1,5,Devine Green,Duncanville,77.38,170.1,113.4,161.03,444.52,Unlimited,SBD,M,
Boys,82.1,6,Josue Cuna,Mesquite Poteet,75.84,136.08,97.52,181.44,415.04,Unlimited,SBD,M,
Boys,82.1,7,Zaire Scott,Mesquite Poteet,80.01,142.88,92.99,165.56,401.43,Unlimited,SBD,M,
Boys,82.1,8,Ezra Melen,Mesquite Horn,76.48,142.88,90.72,154.22,387.82,Unlimited,SBD,M,
Boys,82.1,9,Chris Singh,Mesquite Poteet,79.2,147.42,88.45,151.95,387.82,Unlimited,SBD,M,
Boys,82.1,10,Jayden Luna,Ferris,80.38,142.88,88.45,151.95,383.29,Unlimited,SBD,M,
Boys,82.1,11,Camron Dockery,Carrollton Ranchview,80.2,127.01,97.52,147.42,371.95,Unlimited,SBD,M,
Boys,82.1,12,Kamron Ely,Emory Rains,82.01,138.35,92.99,131.54,362.87,Unlimited,SBD,M,
Boys,82.1,13,Jack Samford,Carrollton Ranchview,76.66,161.03,,149.69,310.71,Unlimited,SD,M,
Boys,82.1,14,Jacob McComb,Emory Rains,78.47,92.99,77.11,104.33,274.42,Unlimited,SBD,M,
Boys,89.81,1,Elvis Carrera,Ferris,87.45,244.94,161.03,229.06,635.03,Unlimited,SBD,M,
Boys,89.81,2,Emanol Gonzalez,Corsicana,83.73,215.46,129.27,226.8,571.53,Unlimited,SBD,M,
Boys,89.81,3,Robert White,Sunnyvale,86.64,197.31,129.27,195.04,521.63,Unlimited,SBD,M,
Boys,89.81,4,Chime Nwanyanwu,Sunnyvale,84.82,176.9,111.13,192.78,480.81,Unlimited,SBD,M,
Boys,89.81,5,Nicholas Parker,Mesquite Horn,84.37,183.7,102.06,183.7,469.47,Unlimited,SBD,M,
Boys,89.81,6,Alex Garcia,Corsicana,88.36,163.29,106.59,188.24,458.13,Unlimited,SBD,M,
Boys,89.81,7,Niehmiah Borner,Duncanville,83.37,172.37,99.79,183.7,455.86,Unlimited,SBD,M,
Boys,89.81,8,David Springer,Emory Rains,89.54,158.76,115.67,179.17,453.59,Unlimited,SBD,M,
Boys,89.81,9,Carson Blalock,Emory Rains,87.18,167.83,106.59,176.9,451.32,Unlimited,SBD,M,
Boys,89.81,10,Mason Williams,Duncanville,86.73,181.44,113.4,142.88,437.72,Unlimited,SBD,M,
Boys,89.81,11,Caleb Dockery,Carrollton Ranchview,87.54,156.49,102.06,158.76,417.3,Unlimited,SBD,M,
Boys,99.79,1,Marc Calderon,Ferris,97.61,254.01,167.83,238.14,659.98,Unlimited,SBD,M,
Boys,99.79,2,Jaqualon Armstrong,Duncanville,93.62,226.8,142.88,231.33,601.01,Unlimited,SBD,M,
Boys,99.79,3,Ethan Samuel,Sunnyvale,97.98,226.8,127.01,208.65,562.45,Unlimited,SBD,M,
Boys,99.79,4,Roderick Hudson,Mesquite Horn,98.88,192.78,142.88,226.8,562.45,Unlimited,SBD,M,
Boys,99.79,5,Adryk Duran,Corsicana,96.98,201.85,108.86,217.72,528.44,Unlimited,SBD,M,
Boys,99.79,6,Brenion Ellis,Carrollton Ranchview,91.63,183.7,122.47,204.12,510.29,Unlimited,SBD,M,
Boys,99.79,7,Champ Jones,Sunnyvale,93.35,204.12,113.4,181.44,498.95,Unlimited,SBD,M,
Boys,99.79,8,Zack Turner,Duncanville,99.7,174.63,129.27,192.78,496.68,Unlimited,SBD,M,
Boys,99.79,9,Jesus Gonzales,Ferris,95.89,167.83,117.93,188.24,474,Unlimited,SBD,M,
Boys,99.79,10,Ashton Harrington,Mesquite Poteet,93.71,163.29,108.86,181.44,453.59,Unlimited,SBD,M,
Boys,99.79,11,Selah Smith,Sunnyvale,91.17,163.29,99.79,185.97,449.06,Unlimited,SBD,M,
Boys,99.79,12,Isaiah Robinson,Mesquite Poteet,99.7,136.08,106.59,185.97,428.64,Unlimited,SBD,M,
Boys,99.79,13,Gabriel Battista,Canton,94.98,120.2,83.91,161.03,365.14,Unlimited,SBD,M,
Boys,99.79,14,Landon Barnes,Duncanville,98.52,136.08,113.4,183.7,433.18,Unlimited,SBD,M,
Boys,109.77,1,Blaze Flanagan,Sunnyvale,109.77,249.48,136.08,192.78,578.33,Unlimited,SBD,M,
Boys,109.77,2,Robert McMillian,Everman,106.23,226.8,151.95,192.78,571.53,Unlimited,SBD,M,
Boys,109.77,3,Jhoel Dionet,Corsicana,107.05,213.19,120.2,233.6,566.99,Unlimited,SBD,M,
Boys,109.77,4,Croix Hesskew,Canton,107.5,197.31,136.08,210.92,544.31,Unlimited,SBD,M,
Boys,109.77,5,Fidel Gonzalez,Corsicana,101.24,188.24,115.67,219.99,523.9,Unlimited,SBD,M,
Boys,109.77,6,Jaylen Manning,Duncanville,104.33,174.63,120.2,192.78,487.61,Unlimited,SBD,M,
Boys,109.77,7,Joiner Damion,Canton,105.6,192.78,90.72,190.51,474,Unlimited,SBD,M,
Boys,109.77,8,Brooklin Miller,Everman,101.33,197.31,111.13,161.03,469.47,Unlimited,SBD,M,
Boys,109.77,9,Kemona Kanayo,Sunnyvale,106.14,170.1,97.52,165.56,433.18,Unlimited,SBD,M,
Boys,109.77,10,Da'Corian Gray,Everman,103.06,163.29,102.06,165.56,430.91,Unlimited,SBD,M,
Boys,109.77,11,Noah Malone,Everman,108.95,151.95,106.59,140.61,399.16,Unlimited,SBD,M,
Boys,109.77,12,David Mason,Mesquite Horn,106.59,142.88,83.91,145.15,371.95,Unlimited,SBD,M,
Boys,124.74,1,Alyric Brown,Sunnyvale,120.66,294.84,158.76,258.55,712.14,Unlimited,SBD,M,
Boys,124.74,2,Tanner Crumpton,Corsicana,119.57,260.82,226.8,215.46,703.07,Unlimited,SBD,M,
Boys,124.74,3,Keondre Harris,Carrollton Ranchview,114.58,244.94,149.69,204.12,598.74,Unlimited,SBD,M,
Boys,124.74,4,Dylan Williams,Duncanville,115.39,188.24,129.27,183.7,501.22,Unlimited,SBD,M,
Boys,124.74,5,Jevon Young,Everman,122.74,192.78,136.08,165.56,494.42,Unlimited,SBD,M,
Boys,124.74,6,Connor Neff,Sunnyvale,117.48,183.7,108.86,176.9,469.47,Unlimited,SBD,M,
Boys,124.74,7,Kelechukwy Ekwu,Sunnyvale,118.39,158.76,104.33,185.97,449.06,Unlimited,SBD,M,
Boys,139.71,1,Tayhios Page,Everman,137.35,256.28,174.63,195.04,625.96,Unlimited,SBD,M,
Boys,139.71,2,Johnny Mancera,Ferris,135.71,226.8,183.7,183.7,594.21,Unlimited,SBD,M,
Boys,139.71,3,Antwain Brown,Duncanville,131.36,226.8,122.47,204.12,553.38,Unlimited,SBD,M,
Boys,139.71,4,Chris Williams,Carrollton Ranchview,128,192.78,142.88,204.12,539.77,Unlimited,SBD,M,
Boys,139.71,5,Kobe Parks,Everman,126.64,219.99,136.08,174.63,530.7,Unlimited,SBD,M,
Boys,139.71,6,Keith Dotie,Mesquite Poteet,129.73,170.1,120.2,204.12,494.42,Unlimited,SBD,M,
Boys,139.71,7,Kameron Newhouse,Duncanville,132.81,142.88,120.2,226.8,489.88,Unlimited,SBD,M,
Boys,139.71,8,Khalil Johnson,Carrollton Ranchview,130.63,185.97,131.54,165.56,483.08,Unlimited,SBD,M,
Boys,139.71,9,Dailon Donaldson,Everman,131.36,165.56,102.06,136.08,403.7,Unlimited,SBD,M,
Boys,139.71,10,Robert Busby,Everman,135.26,174.63,83.91,129.27,387.82,Unlimited,SBD,M,
Boys,139.71,11,Scott Eubanks,Emory Rains,125.46,124.74,92.99,142.88,360.61,Unlimited,SBD,M,
Boys,139.71,12,Antwon King,Everman,130.63,108.86,95.25,138.35,342.46,Unlimited,SBD,M,
Boys,139.71+,1,Jorge Ramos,Corsicana,160.66,249.48,204.12,233.6,687.19,Unlimited,SBD,M,
Boys,139.71+,2,Ameer Ross,Duncanville,169.92,260.82,124.74,219.99,605.55,Unlimited,SBD,M,
Boys,139.71+,3,Brennan Lockhart,Ferris,153.22,201.85,127.01,226.8,555.65,Unlimited,SBD,M,
Boys,139.71+,4,Jakaylon Elmo,Duncanville,183.7,138.35,102.06,161.03,401.43,Unlimited,SBD,M,
